Point(1) = {0, 0, 0, 0.75};
Point(2) = {1, 0, 0, 0.75};
Point(3) = {-1, 0, 0, 0.75};
Point(4) = {0, 1, 0, 0.75};
Point(5) = {0, -1, 0, 0.75};
Point(6) = {0, 0, 1, 0.75};
Point(7) = {0, 0, -1, 0.75};

Ellipse(1) = {2, 1, 2, 4};
Ellipse(2) = {4, 1, 3, 3};
Ellipse(3) = {3, 1, 3, 5};
Ellipse(4) = {5, 1, 2, 2};
Ellipse(5) = {2, 1, 6, 6};
Ellipse(6) = {6, 1, 6, 3};
Ellipse(7) = {3, 1, 7, 7};
Ellipse(8) = {7, 1, 7, 2};
Ellipse(9) = {4, 1, 6, 6};
Ellipse(10) = {6, 1, 6, 5};
Ellipse(11) = {5, 1, 7, 7};
Ellipse(12) = {7, 1, 7, 4};
Line Loop(1) = {2, 7, 12};
Surface(1) = {-1};
Line Loop(2) = {2, -6, -9};
Surface(2) = {2};
Line Loop(3) = {3, -10, 6};
Surface(3) = {3};
Line Loop(4) = {3, 11, -7};
Surface(4) = {-4};
Line Loop(5) = {4, -8, -11};
Surface(5) = {-5};
Line Loop(6) = {4, 5, 10};
Surface(6) = {6};
Line Loop(7) = {1, 9, -5};
Surface(7) = {7};
Line Loop(8) = {1, -12, 8};
Surface(8) = {-8};
